<?xml version="1.0" encoding="utf-8"?>
<!-- Generator: Adobe Illustrator 23.1.1, SVG Export Plug-In . SVG Version: 6.00 Build 0)  -->
<svg version="1.1" id="CONSTRUCTIVE_LLC" xmlns="http://www.w3.org/2000/svg" xmlns:xlink="http://www.w3.org/1999/xlink" x="0px"
	 y="0px" viewBox="0 0 2573.2 240.76" style="enable-background:new 0 0 2573.2 240.76;" xml:space="preserve">
<g>
	<g id="AlPHABET_LOGO_1_">
		<g>
			<g>
				<path d="M1322.41,121.88c0.03-53.31,37-104.13,93.88-104.62c22.8-0.2,45.13,9.47,61.27,25.6
					c-8.91,11.41-17.85,22.79-26.83,34.15c-9.01-8.31-20.24-14.73-32.68-14.48c-29.46,0.61-42.53,31.99-42.57,57.54
					c-0.04,26.4,11.11,57.76,41.96,58.14c13.74,0.17,26.52-6.84,35.71-16.92c8.98,11.16,17.93,22.33,26.85,33.53
					c-16.23,19.01-40.25,28.9-64.93,28.64C1358.13,222.88,1322.37,175.97,1322.41,121.88z"/>
				<path d="M1544.72,63.91c-17.29,0.15-34.58,0.29-51.87,0.44c-0.14-14.86-0.31-29.71-0.53-44.57
					c51.86-0.79,103.73-1.57,155.59-2.36c0.22,15.2,0.4,30.41,0.54,45.61c-17.29,0.15-34.58,0.29-51.87,0.44
					c0.4,53.03,0.22,106.05-0.53,159.07c-17.29-0.26-34.57-0.52-51.86-0.79C1544.94,169.14,1545.12,116.52,1544.72,63.91z"/>
				<path d="M1676.86,16.98c17.29-0.26,34.57-0.52,51.86-0.79c0.98,69.45,0.98,138.9,0,208.35c-17.29-0.26-34.57-0.52-51.86-0.79
					C1677.84,154.83,1677.83,85.91,1676.86,16.98z"/>
				<path d="M1747.41,15.91c18.29-0.28,36.58-0.55,54.88-0.83c7.28,30.61,14.38,61.27,21.29,91.97
					c5.17,22.26,9.36,44.73,14.28,67.05c0.48,0,0.72,0.01,1.21,0.01c5.28-22.29,9.75-44.75,14.67-67.11
					c6.56-30.96,12.93-61.95,19.11-92.98c17.69-0.27,35.38-0.54,53.07-0.8c-18.22,71.45-37.51,142.59-57.89,213.45
					c-20.91-0.32-41.81-0.63-62.72-0.95C1787.07,155.48,1767.78,85.55,1747.41,15.91z"/>
				<path d="M1944.6,12.92c42.22-0.64,84.43-1.28,126.65-1.92c0.25,16.15,0.43,32.3,0.57,48.46c-24.93,0.21-49.86,0.42-74.78,0.63
					c0.09,11.32,0.15,22.65,0.21,33.97c21.31-0.08,42.62-0.16,63.93-0.24c0.06,16.13,0.06,32.26,0.02,48.39
					c-21.31-0.06-42.62-0.13-63.93-0.19c-0.04,12.88-0.11,25.75-0.22,38.63c25.93,0.22,51.87,0.44,77.8,0.66
					c-0.13,16.16-0.33,32.32-0.57,48.48c-43.22-0.65-86.44-1.31-129.67-1.96C1945.62,156.18,1945.62,84.55,1944.6,12.92z"/>
				<path d="M2162.63,33.94c15.13-0.18,30.25-0.36,45.38-0.54c0.55,50.59,0.63,101.18,0.23,151.78c21.63,0.19,43.26,0.38,64.89,0.57
					c-0.14,14.53-0.31,29.05-0.51,43.57c-36.75-0.54-73.51-1.08-110.26-1.62C2163.24,163.12,2163.33,98.53,2162.63,33.94z"/>
				<path d="M2302.47,32.29c15.12-0.18,30.25-0.36,45.37-0.54c0.57,51.55,0.64,103.11,0.23,154.66c21.63,0.19,43.27,0.38,64.9,0.57
					c-0.14,14.8-0.32,29.6-0.52,44.39c-36.75-0.54-73.51-1.08-110.26-1.62C2303.09,163.94,2303.19,98.11,2302.47,32.29z"/>
				<path d="M2435.44,132.76c0.78-46.86,26.87-105.84,82.27-106.77c20.19-0.34,40.59,11.16,53.57,26.41
					c-7.81,11.59-15.65,23.17-23.52,34.73c-7.47-8.12-17.32-15.12-28.57-14.88c-28.61,0.61-36.76,36.3-37.32,58.72
					c-0.58,22.89,7.28,59.11,36.63,59.45c12.53,0.14,23.7-7.55,31.27-17.29c7.84,11.37,15.66,22.75,23.43,34.17
					c-13.36,18.3-34.05,29.85-56.85,29.37C2460.59,235.47,2434.62,181.59,2435.44,132.76z"/>
			</g>
		</g>
		<g>
			<path d="M0,122.18C0.03,67.82,29.81-1.07,95.64,0.01c23.85,0.39,45.54,13.4,60.49,31.42c-9.21,12.9-18.37,25.83-27.5,38.79
				c-8.46-9.32-19.4-17.23-32.44-17.35c-32.34-0.31-43.83,41.81-43.12,67.13c0.73,26.16,7.72,68.49,42.52,67.85
				c14.45-0.26,26.89-9.03,35.43-20.22c9.12,12.72,18.27,25.42,27.47,38.09c-14.92,21.03-38.07,34.62-64.07,35.01
				C28.54,241.75-0.03,177.35,0,122.18z"/>
			<path d="M176.72,119.31c0-55.95,28.29-117.16,92-116.58c62.84,0.57,90.16,61.47,90.15,116.6
				c-0.01,54.91-26.91,118.12-90.15,118.67C204.68,238.57,176.71,174.95,176.72,119.31z M305.79,119.33
				c0.01-24.26-6.17-64.3-37.71-64.94c-31.63-0.63-38.29,41.38-38.29,64.92c0.01,23.26,6.56,67.69,38.29,67.03
				C299.71,185.69,305.78,143.32,305.79,119.33z"/>
			<path d="M394.68,8.83c17.69,0.27,35.38,0.54,53.07,0.8c13.97,33.06,28.17,66.02,42.6,98.88c6.21,16.47,12.47,32.92,18.78,49.36
				c0.48,0,0.72,0,1.21-0.01c-3.05-27.84-6.67-55.76-6.59-83.81c0.15-21.19,0.38-42.37,0.68-63.56c16.48,0.25,32.97,0.5,49.45,0.75
				c-1.03,72.75-1.03,145.5,0,218.26c-17.69,0.27-35.38,0.54-53.07,0.8c-14.98-32.69-29.73-65.47-44.25-98.36
				c-6.25-16.46-12.45-32.94-18.61-49.43c-0.48,0-0.72,0-1.21-0.01c2.71,28.19,5.96,56.24,6.69,84.57
				c0.15,21.36,0.38,42.73,0.69,64.09c-16.48,0.25-32.97,0.5-49.45,0.75C393.62,157.55,393.62,83.19,394.68,8.83z"/>
			<path d="M584.88,201.94c9.69-13.24,19.42-26.45,29.21-39.62c12.34,10.55,29.66,20.24,45.99,20.57c9.4,0.19,22.87-3.73,22.2-15.36
				c-0.7-12.27-17.05-16.71-26.65-20.68c-9.79-4.47-14.68-6.71-24.46-11.2c-24.51-10.18-39.42-34.26-39.38-60.37
				c0.05-39.68,35.67-67.01,73.71-66.31c24.4,0.44,48.29,11.56,64.74,29.52c-8.78,11.71-17.54,23.45-26.26,35.2
				c-12.1-8.52-24.14-15.34-39.08-15.8c-8.94-0.27-20.98,3.82-20.62,14.41c0.41,12.21,19.41,17.89,28.84,21.66
				c9.51,4.13,14.27,6.19,23.79,10.29c23.91,10.49,38.59,32.19,38.41,58.35c-0.29,41.51-36.27,68.77-75.85,69.28
				C632,232.22,604.55,221.09,584.88,201.94z"/>
			<path d="M804.19,61.71c-17.29-0.15-34.58-0.29-51.87-0.44c0.14-15.67,0.31-31.34,0.55-47.02c51.86,0.79,103.73,1.57,155.59,2.36
				c-0.22,15.32-0.4,30.65-0.54,45.97c-17.29-0.15-34.58-0.29-51.87-0.44c-0.4,54.26-0.22,108.51,0.55,162.77
				c-17.29,0.26-34.58,0.52-51.87,0.79C803.97,171.03,803.78,116.37,804.19,61.71z"/>
			<path d="M937.41,17.05c24.73,0.37,49.45,0.75,74.18,1.12c41.96,0.53,78,20.27,77.73,66.45c-0.26,45.02-36.28,69.27-78.42,69.39
				c-8.93,0.04-13.39,0.07-22.31,0.11c0.14,22.93,0.37,45.85,0.69,68.78c-17.29,0.26-34.58,0.52-51.87,0.79
				C936.44,154.81,936.44,85.93,937.41,17.05z M1007.2,111.24c16.64,0.98,31.22-9.71,31.45-26.89c0.24-17.48-15.92-24.11-31.2-23.45
				c-7.48-0.07-11.22-0.1-18.7-0.16c-0.15,16.83-0.23,33.65-0.26,50.48C995.99,111.23,999.73,111.23,1007.2,111.24z M1001.49,139.89
				c11.61-11.98,23.27-23.92,34.98-35.81c21.08,39.25,42.53,78.3,64.37,117.13c-19.3,0.29-38.6,0.58-57.89,0.88
				C1028.96,194.78,1015.14,167.38,1001.49,139.89z"/>
			<path d="M1125.4,123.77c0.02-34.62,0.27-69.24,0.76-103.86c17.29,0.26,34.57,0.52,51.86,0.79c-0.52,36.39-0.77,72.79-0.75,109.18
				c0.01,20.98,3.5,48.61,29.8,48.2c25.88-0.41,30.46-26.95,29.91-48.28c-0.02-36.07,0.23-72.13,0.74-108.19
				c16.68,0.25,33.37,0.51,50.05,0.76c-0.48,33.77-0.73,67.55-0.74,101.33c0.55,53.49-21.14,98.08-79.41,99.57
				C1147.88,224.79,1125.62,177.16,1125.4,123.77z"/>
		</g>
	</g>
</g>
</svg>
